Date,cpu_1,cpu_2,cpu_3,cpu_4,cpu_5,cpu_6,cpu_7,cpu_8,cpu_9,cpu_10,cpu_11,cpu_12,cpu_13,cpu_14,cpu_15,cpu_16,cpu_17,cpu_18,cpu_19,cpu_20
1653021479295,0,2,1,0,0,100,0,0,0,0,0,0,0,0,100,0,2,0,0,0
1653021479796,0,0,0,0,65,35,0,0,1,0,0,0,0,0,100,0,1,0,0,0
1653021480297,0,0,0,0,100,0,0,0,0,0,0,0,0,0,100,0,0,0,0,0
1653021480798,0,0,0,0,100,0,2,0,0,0,0,0,0,0,100,0,0,0,0,0
1653021481299,0,0,0,0,100,0,1,0,0,0,0,0,0,0,100,0,2,0,0,0
1653021481799,0,0,0,0,100,0,0,1,2,0,0,0,0,0,100,0,0,0,0,0
1653021482300,0,0,0,0,100,0,1,0,0,0,0,0,0,0,100,0,0,0,0,0
1653021482800,0,0,0,0,100,0,0,0,0,0,0,0,0,0,100,0,0,0,0,0
1653021483300,0,0,0,0,100,0,0,0,0,0,0,0,0,0,100,0,2,0,0,0
1653021483801,0,0,0,0,100,0,0,0,0,0,0,0,0,0,100,0,1,0,0,0
1653021484301,0,0,0,0,100,0,0,0,0,0,0,0,0,0,100,0,0,0,1,0
1653021484801,0,0,2,0,100,0,0,0,0,0,0,0,1,0,100,0,0,0,2,0
1653021485301,0,0,0,0,100,0,0,0,0,0,0,0,1,0,100,0,0,0,0,0
1653021485801,0,0,0,0,100,0,0,0,0,0,0,0,0,0,100,0,0,0,0,0
1653021486301,0,0,1,0,100,0,0,2,1,0,1,0,2,0,100,0,2,0,0,0
1653021486801,4,0,4,0,100,0,0,0,4,0,4,0,0,0,100,0,4,0,0,0
1653021487302,4,0,3,0,100,0,1,0,2,0,2,0,0,0,100,0,4,0,0,0
1653021487802,0,0,0,0,100,0,0,0,1,0,0,0,0,0,100,0,0,0,0,0
1653021488303,0,0,0,0,100,0,0,0,0,0,0,0,0,0,100,0,1,0,3,0
1653021488803,0,0,0,0,100,0,2,0,1,0,0,0,0,0,100,0,1,0,0,0
1653021489304,1,0,0,0,100,0,0,0,1,0,0,0,0,0,100,0,1,0,0,0
1653021489804,0,0,0,0,100,0,0,0,0,0,0,0,0,0,100,0,0,0,0,0
1653021490304,0,0,0,0,100,0,0,0,0,0,0,0,0,0,100,0,0,0,0,1
1653021490804,0,0,0,0,41,59,0,0,0,0,0,0,0,0,100,0,0,0,0,0
1653021491303,0,0,0,0,0,100,0,0,0,0,0,0,0,0,100,0,0,0,0,0
1653021491803,0,0,0,0,0,100,0,0,0,0,0,0,0,0,100,0,3,0,0,0
1653021492303,0,2,0,0,0,100,0,0,0,0,0,0,0,0,100,0,0,0,0,1
1653021492804,0,0,0,0,0,100,0,1,0,0,0,0,0,0,100,0,0,0,0,0
1653021493305,0,0,0,0,0,100,0,0,0,0,0,0,0,1,100,0,0,0,0,1
1653021493806,0,0,0,0,0,100,0,0,2,0,0,0,0,0,100,0,0,0,0,0
1653021494307,0,0,0,0,0,100,0,0,0,0,0,0,0,0,100,0,1,0,0,0
1653021494808,0,0,0,0,0,100,1,0,0,0,0,0,0,0,100,0,0,0,0,1
1653021495309,0,2,0,0,0,100,0,0,1,0,0,0,0,0,100,0,1,0,1,0
1653021495809,0,0,0,0,0,100,0,0,3,0,0,0,0,0,100,0,0,0,1,1
1653021496310,0,0,0,0,0,100,0,0,0,0,0,0,0,0,100,0,0,0,0,0
1653021496811,0,0,0,0,0,100,0,0,0,0,0,0,0,0,100,0,0,0,0,0
1653021497311,0,0,0,0,0,100,0,0,0,0,0,0,1,0,100,0,0,0,0,0
1653021497811,0,0,0,0,0,100,0,0,0,0,0,0,0,0,100,0,0,0,1,2
1653021498311,0,2,0,0,0,100,0,0,0,0,0,0,0,0,100,0,3,0,0,0
1653021498810,0,0,0,0,0,100,0,0,0,0,0,0,1,0,100,0,0,0,0,0
1653021499310,0,0,0,0,0,100,1,0,0,0,0,0,0,0,100,0,0,0,0,0
1653021499811,0,0,0,0,0,100,0,0,0,0,0,0,0,0,100,0,0,0,0,2
1653021500311,0,0,0,0,0,100,0,0,0,0,0,0,0,0,100,0,1,0,0,0
1653021500810,0,0,0,0,0,100,0,0,0,0,0,0,0,0,100,0,3,0,0,1
1653021501310,0,2,0,0,0,100,0,0,0,0,0,0,0,0,100,0,1,0,0,0
1653021501810,0,0,0,0,0,100,0,0,0,0,0,0,0,0,100,0,1,0,0,0
1653021502310,0,0,0,0,0,100,0,0,0,0,0,0,0,0,100,0,0,0,0,1
1653021502810,0,0,0,0,0,100,0,0,0,0,0,0,0,0,100,0,0,0,0,0
1653021503310,1,0,2,0,0,100,0,0,0,0,0,0,0,0,100,0,0,0,0,0
1653021503810,0,0,0,0,0,98,0,0,0,0,0,0,0,0,100,0,0,0,0,0
1653021504310,0,1,0,0,0,100,0,0,0,0,0,0,0,0,100,0,0,0,0,0
1653021504811,0,0,0,0,0,100,0,1,0,0,0,0,0,0,100,0,0,0,0,0
1653021505312,0,0,0,0,0,100,0,0,0,0,0,0,0,0,100,0,1,0,0,0
1653021505813,1,0,0,0,0,100,0,0,0,0,0,0,0,0,100,0,1,0,0,0
1653021506314,0,0,0,0,0,100,0,0,0,0,0,0,0,0,100,0,0,0,0,0
1653021506815,0,0,0,0,0,100,0,0,0,0,0,0,0,0,100,0,0,0,0,0
1653021507316,0,2,0,0,0,100,0,0,0,0,0,0,0,0,100,0,0,0,0,0
1653021507817,0,0,0,0,0,100,0,0,0,0,0,0,0,0,100,0,0,0,0,0
1653021508318,2,0,0,0,0,100,0,0,0,0,0,0,0,0,100,0,0,0,0,0
1653021508819,0,0,0,0,0,98,3,0,0,0,0,0,0,0,100,0,0,0,0,0
1653021509320,0,0,0,0,0,100,0,0,0,0,0,0,0,0,100,0,0,0,0,0
1653021509821,2,0,0,0,0,100,0,0,0,0,0,0,0,0,100,0,0,0,0,0
1653021510322,0,1,1,0,0,100,0,0,0,0,0,0,0,0,100,0,0,1,1,0
1653021510823,0,0,0,0,0,100,0,0,0,0,0,0,0,0,100,0,0,0,0,0
1653021511324,0,0,0,0,0,100,0,0,0,0,0,0,0,0,100,0,1,0,0,0
1653021511825,0,0,0,0,0,100,1,0,0,0,0,0,0,0,100,0,0,0,0,0
1653021512326,0,1,0,0,0,100,1,0,0,0,0,0,0,0,100,0,1,0,0,0
1653021512827,0,0,0,0,0,100,0,0,1,0,0,0,0,0,100,0,0,0,0,0
1653021513328,0,0,0,0,0,100,0,0,0,0,0,0,0,0,100,0,0,0,0,0
1653021513829,0,0,0,0,0,100,0,0,1,0,0,0,0,0,100,0,1,0,0,0
1653021514330,0,0,0,0,0,100,1,0,0,0,0,0,0,0,100,0,0,0,0,0
1653021514831,0,0,1,0,0,100,0,0,0,0,0,0,0,0,100,0,0,0,0,0
1653021515332,0,0,0,0,0,100,0,0,3,0,0,0,0,0,100,0,0,0,0,0
1653021515833,0,0,0,0,0,100,0,0,1,0,0,0,0,0,100,0,0,0,0,0
1653021516333,0,0,0,0,0,100,0,0,2,0,0,0,0,0,100,0,0,0,0,0
1653021516833,0,0,0,0,0,100,0,0,0,0,0,0,0,0,100,0,0,1,0,0
1653021517332,0,0,0,0,0,100,1,0,0,0,0,0,0,0,100,0,0,0,0,0
1653021517832,0,2,0,0,0,100,0,0,0,0,0,0,0,0,100,0,0,0,0,0
1653021518332,0,0,0,0,0,100,0,1,0,0,0,0,0,0,100,0,0,0,1,0
1653021518832,0,0,1,0,0,100,0,0,0,0,0,0,1,0,100,0,0,0,1,0
1653021519332,0,0,0,0,0,100,0,0,0,0,0,0,0,0,100,0,0,0,0,0
1653021519832,1,0,0,0,0,100,0,0,1,0,0,0,0,0,100,0,0,0,0,0
1653021520332,1,0,0,0,0,100,0,0,1,0,0,0,1,0,100,0,0,0,0,0
1653021520832,0,1,0,0,0,100,0,0,0,0,0,0,0,0,100,0,0,0,0,0
1653021521334,0,0,0,0,0,100,0,0,0,0,0,0,0,0,100,0,0,0,0,0
1653021521834,1,0,0,0,0,100,0,0,3,0,0,0,0,0,100,0,0,0,0,0
1653021522335,0,0,0,0,0,100,0,0,0,0,0,0,0,0,100,0,0,0,0,0
1653021522836,0,2,1,0,0,100,0,0,6,1,0,0,0,0,100,0,0,0,0,0
1653021523337,0,0,0,0,0,100,0,0,0,0,0,0,0,0,100,0,0,0,0,0
1653021523838,0,1,1,0,0,100,0,0,0,0,0,0,0,0,100,0,0,0,0,0
1653021524339,0,0,0,0,0,100,0,0,1,1,0,0,0,0,100,0,0,0,0,0
1653021524840,0,0,0,0,0,100,0,0,0,0,0,0,0,0,100,0,0,0,0,0
1653021525341,0,0,0,0,0,100,0,0,1,0,0,0,0,0,100,0,0,0,0,0
1653021525842,0,0,0,0,0,100,0,0,0,0,0,0,0,0,100,0,0,0,0,0
1653021526343,0,0,0,0,0,100,0,0,0,0,0,0,0,0,100,0,0,0,0,0
1653021526844,0,1,1,0,0,100,0,0,0,0,0,0,0,0,100,0,0,0,0,0
1653021527343,2,0,0,0,0,100,0,0,0,0,0,0,0,0,100,0,0,0,0,0
1653021527843,0,0,2,0,0,100,0,0,0,0,0,0,0,0,100,0,0,0,0,0
1653021528343,0,0,0,0,0,100,0,0,0,0,0,0,0,0,100,0,0,0,0,0
1653021528844,0,0,0,0,0,100,0,0,0,0,0,0,0,0,100,0,1,0,0,0
1653021529345,0,0,0,0,0,100,0,0,3,0,0,0,0,0,100,0,0,0,0,0
1653021529846,0,0,0,0,0,100,0,0,0,0,0,0,0,0,100,0,0,0,0,0
1653021530347,0,0,0,0,0,100,1,0,0,0,0,0,0,0,100,0,0,0,0,0
1653021530848,0,0,0,0,0,100,0,0,0,0,0,0,0,0,100,0,0,0,0,0
1653021531349,0,0,1,0,0,100,0,0,0,0,0,0,0,0,100,0,1,0,0,0
1653021531850,0,0,1,0,1,96,0,0,0,0,0,0,0,0,100,0,0,0,1,0
1653021532351,0,0,0,0,0,100,0,0,0,0,0,0,1,0,100,0,0,0,0,0
1653021532852,0,2,0,0,0,100,0,0,2,1,0,0,0,0,100,0,0,0,0,0
1653021533353,0,0,0,0,0,100,0,0,0,0,0,0,0,0,100,0,0,0,0,0
1653021533854,0,0,0,0,0,100,0,0,0,0,0,0,0,0,100,0,0,0,0,0
1653021534355,0,0,0,0,0,100,0,0,0,0,0,0,0,0,100,0,0,0,0,0
1653021534856,0,0,0,0,69,31,0,0,0,0,0,0,0,0,100,0,0,0,0,0
1653021535357,0,0,0,0,100,0,0,0,0,0,0,0,0,0,100,0,0,0,0,0
1653021535858,0,0,0,0,100,0,0,0,0,0,2,0,0,0,100,0,1,0,0,0
1653021536359,0,0,0,0,100,0,0,0,0,0,0,0,0,0,100,0,0,0,0,0
1653021536860,0,0,0,0,100,0,0,0,0,0,0,0,0,0,100,0,0,0,0,0
1653021537361,0,0,0,0,100,0,0,0,0,0,0,0,0,0,100,0,0,0,0,0
1653021537862,0,0,0,0,100,0,0,0,1,0,0,0,0,0,100,0,0,0,0,0
1653021538363,0,0,0,0,100,0,0,0,0,0,0,0,0,0,100,0,0,0,0,0
1653021538862,0,0,0,0,100,0,0,0,0,0,0,0,0,0,100,0,0,0,0,0
1653021539362,0,0,1,0,100,0,0,0,0,0,0,0,0,0,100,0,0,0,0,0
1653021539862,0,0,1,0,100,0,0,0,3,0,0,0,0,0,100,0,0,0,0,0
1653021540362,0,0,1,0,100,0,0,0,1,0,0,0,0,0,100,0,2,0,0,0
1653021540862,0,0,0,0,100,0,0,0,0,0,0,0,0,0,100,0,0,0,0,0
1653021541362,0,0,0,0,100,0,0,0,0,0,0,0,0,0,100,0,0,0,0,0
1653021541862,0,0,0,0,100,0,0,0,0,0,0,0,0,0,100,0,0,0,0,0
1653021542363,0,0,0,0,100,0,0,0,0,0,1,0,0,0,100,0,0,0,0,0
1653021542864,0,0,1,0,100,0,0,0,0,0,0,0,0,0,100,0,0,0,0,0
1653021543365,0,0,0,0,100,0,0,0,0,0,0,0,0,0,100,0,0,0,0,0
1653021543865,1,0,1,0,100,0,0,0,0,0,0,0,0,0,100,0,0,1,0,0
1653021544366,0,0,0,0,100,0,1,0,0,0,0,0,0,0,100,0,0,0,0,0
1653021544867,0,0,0,0,100,0,0,0,0,0,0,0,0,0,100,0,0,0,0,0
1653021545368,0,0,0,0,100,0,0,0,0,0,0,0,0,0,100,0,0,0,0,0
1653021545869,0,0,3,0,100,0,0,0,0,0,0,0,0,0,100,0,0,0,1,0
1653021546370,0,1,2,0,100,0,2,0,17,0,18,0,2,0,100,0,0,0,0,3
1653021546871,0,0,0,0,100,0,0,0,1,0,9,0,0,0,100,0,0,0,0,0
1653021547370,0,0,0,0,100,0,0,0,0,0,0,0,2,0,100,0,0,0,0,0
1653021547871,0,0,0,0,100,0,0,0,0,0,0,0,0,0,100,0,0,0,0,0
1653021548372,0,0,0,0,100,0,0,0,0,0,0,0,0,0,100,0,0,0,0,0
1653021548872,0,0,0,0,100,0,0,0,0,0,0,0,0,0,100,0,2,0,0,0
1653021549372,0,1,1,0,100,0,0,0,0,0,0,0,0,0,100,0,0,0,0,0
1653021549872,0,0,0,0,100,0,0,0,0,0,0,0,0,0,100,0,0,0,0,0
1653021550372,0,0,1,0,100,0,0,0,0,0,0,0,3,0,100,0,0,0,0,0
1653021550872,0,0,2,0,100,0,0,0,0,0,0,0,1,0,100,0,0,0,0,0
1653021551373,0,0,0,0,100,0,0,0,0,0,0,0,0,0,100,0,0,0,0,0
1653021551873,0,0,0,0,100,0,0,0,0,0,0,0,0,0,100,0,0,0,0,0
1653021552374,0,1,0,0,100,0,0,0,0,0,0,0,0,0,100,0,0,0,0,0
1653021552875,0,0,0,0,100,0,0,0,0,0,0,0,0,0,100,0,0,0,0,0
1653021553376,0,0,0,0,100,0,0,0,0,0,0,0,0,0,100,0,1,0,0,0
1653021553877,0,0,0,0,100,0,0,0,0,0,0,0,0,0,100,0,0,0,0,0
1653021554378,0,0,0,0,100,0,0,0,0,0,0,0,1,0,100,0,1,0,0,0
1653021554879,0,0,0,0,100,0,0,0,0,0,0,0,0,0,100,0,0,0,0,0
1653021555380,0,2,1,0,100,0,0,0,0,0,0,0,0,0,100,0,1,0,0,0
1653021555879,0,0,0,0,100,0,0,0,0,0,0,0,0,0,100,0,0,0,0,0
1653021556379,0,0,0,0,100,0,0,0,1,0,0,0,0,0,100,0,0,0,1,0
1653021556879,1,0,0,0,100,0,0,0,0,0,0,0,1,0,100,0,0,0,0,0
1653021557380,0,0,0,0,100,0,0,0,0,0,0,0,0,0,100,0,1,0,0,0
1653021557881,0,0,0,0,100,0,0,0,0,0,0,0,1,0,100,0,0,0,0,0
1653021558382,0,1,0,0,100,0,0,0,0,0,0,0,0,0,100,0,0,0,1,0
1653021558883,0,0,0,0,100,0,0,0,1,0,0,0,0,0,100,0,1,0,0,0
1653021559384,0,0,2,0,100,0,0,0,0,0,0,0,0,0,100,0,0,0,0,0
1653021559885,0,0,0,0,100,0,0,0,0,0,0,0,0,0,100,0,0,0,0,0
1653021560386,0,0,0,0,100,0,0,0,0,0,0,0,0,0,100,0,0,0,0,0
1653021560887,0,0,0,0,100,0,0,0,0,0,0,0,0,0,100,0,0,0,0,0
1653021561388,0,2,0,0,100,0,0,0,0,0,0,0,1,0,100,0,0,0,0,0
1653021561888,0,0,1,0,100,0,0,0,0,0,0,0,0,0,100,0,0,0,0,0
1653021562387,0,0,2,0,100,0,0,0,0,1,0,0,0,0,100,0,0,0,0,0
1653021562888,0,0,0,0,100,0,0,0,0,0,0,0,0,0,100,0,0,0,0,0
1653021563387,0,0,0,0,100,0,0,0,0,0,0,0,0,0,100,0,0,0,0,0
1653021563887,0,0,2,0,100,0,0,0,0,0,0,0,2,0,100,0,0,0,0,0
1653021564387,0,0,0,0,100,0,0,0,0,0,0,0,0,0,100,0,0,0,0,0
1653021564887,0,1,0,0,100,0,0,0,0,0,0,0,0,0,100,0,0,0,0,0
1653021565388,0,0,2,0,100,0,0,0,0,0,0,0,1,0,100,0,0,0,0,0
1653021565889,0,0,0,0,100,0,0,0,0,0,0,0,0,0,100,0,1,0,0,0
1653021566390,0,0,0,0,100,0,0,0,0,0,0,0,1,0,100,0,0,0,0,0
1653021566891,0,0,0,0,100,0,0,0,0,0,0,0,1,0,100,0,1,0,0,0
1653021567392,0,0,0,0,100,0,0,0,0,0,0,0,0,0,100,0,0,0,0,0
1653021567893,0,2,0,0,100,0,0,1,0,0,0,0,0,0,100,0,0,1,0,0
1653021568394,0,0,0,0,100,0,0,0,0,0,0,0,0,0,100,0,0,0,0,0
1653021568895,0,0,0,0,100,0,0,0,0,0,0,0,0,0,100,0,0,0,0,0
1653021569396,0,0,0,0,100,0,0,0,0,0,0,0,1,0,100,0,0,0,0,0
1653021569897,0,0,0,0,33,67,0,0,0,0,0,0,0,0,100,0,0,0,0,0
1653021570396,0,0,3,0,0,100,0,0,0,0,0,0,0,0,100,0,0,0,0,0
1653021570896,0,0,0,0,0,100,0,0,0,0,0,0,0,0,100,0,0,0,0,0
1653021571396,0,0,2,0,0,100,0,0,0,0,0,0,0,0,100,0,0,0,0,0
1653021571896,0,0,0,0,85,15,0,0,0,0,0,0,0,0,100,0,0,0,0,0
1653021572397,0,0,3,0,100,0,0,0,0,0,0,0,0,0,43,57,0,0,0,0
1653021572898,0,0,0,0,100,0,1,0,0,0,0,0,2,0,0,100,0,0,0,0
1653021573399,0,0,0,0,100,0,0,0,0,0,0,0,0,0,0,100,1,0,0,0
1653021573900,0,0,0,0,100,0,0,0,0,0,0,0,0,0,0,100,0,1,0,0
1653021574401,0,0,0,0,100,0,1,0,0,0,0,0,0,0,0,100,0,0,0,0
1653021574902,0,0,0,0,21,78,1,0,0,0,0,0,1,0,0,100,0,0,0,0
1653021575403,0,1,0,0,0,100,0,0,0,0,0,0,0,0,0,100,0,0,0,0
1653021575904,0,0,0,0,0,100,0,0,0,0,0,0,0,0,0,100,0,0,0,0
1653021576405,0,0,0,0,0,100,0,0,0,0,0,0,0,0,0,100,0,0,0,0
1653021576906,0,0,0,0,0,100,0,0,0,0,0,0,0,0,0,100,0,0,0,0
1653021577407,0,0,0,0,0,100,0,0,0,0,2,0,0,0,0,100,0,0,0,0
1653021577908,0,0,0,0,0,100,0,0,3,0,0,0,0,0,0,100,0,0,0,0
1653021578407,0,1,0,0,0,100,0,0,0,0,0,0,0,0,0,100,0,0,0,0
1653021578907,0,0,0,0,0,100,0,0,2,0,0,0,0,0,0,100,0,0,0,0
1653021579407,0,0,0,0,0,100,0,0,1,0,0,0,0,0,0,100,0,0,0,0
1653021579908,0,0,0,0,0,100,0,0,1,0,0,0,0,0,0,100,0,0,0,0
1653021580409,0,0,0,0,0,100,0,0,0,0,0,0,0,0,0,100,0,0,0,0
1653021580910,0,0,0,0,0,100,1,0,0,0,0,0,0,0,0,100,0,0,0,0
1653021581411,0,2,0,0,0,100,0,0,0,0,0,0,0,0,0,100,0,0,0,0
1653021581912,0,0,0,0,0,100,0,1,0,0,0,0,1,0,0,100,0,0,0,0
1653021582413,0,0,0,0,0,100,0,0,0,0,0,0,1,0,0,100,0,0,0,0
1653021582914,0,0,0,0,0,100,0,0,0,0,0,0,0,0,0,100,0,0,0,0
1653021583415,0,0,0,0,0,100,0,0,0,0,0,0,0,0,0,100,0,0,0,0
1653021583915,0,0,0,0,0,100,0,0,4,0,0,0,0,0,0,100,1,0,0,0
1653021584415,0,0,0,0,0,100,0,1,0,0,0,0,1,0,0,100,0,0,0,0
1653021584916,0,0,0,0,0,100,0,0,0,0,0,0,0,0,0,100,0,0,0,0
1653021585417,0,1,0,0,0,100,0,0,0,0,0,0,1,0,0,100,0,0,1,0
1653021585916,0,0,0,0,0,100,0,0,0,0,0,0,0,0,0,100,0,0,0,0
1653021586416,0,0,0,0,0,100,0,0,0,0,0,0,1,0,0,100,0,0,0,0
1653021586916,0,0,0,0,0,100,0,0,0,0,0,0,0,1,0,100,2,0,0,0
1653021587416,0,0,0,0,0,100,0,0,0,0,0,0,0,0,0,100,0,0,0,0
1653021587916,0,0,0,0,0,100,0,0,0,0,0,0,0,0,0,100,0,0,0,0
1653021588416,0,0,0,0,0,100,0,0,0,0,0,0,0,0,0,100,0,0,0,0
1653021588917,0,0,0,0,0,100,0,0,2,0,0,0,0,0,0,100,0,0,0,0
1653021589418,0,0,0,0,0,100,0,0,0,0,0,0,1,0,0,100,0,0,0,0
1653021589918,0,0,0,0,0,100,0,0,0,0,0,0,0,0,0,100,0,0,1,0
1653021590418,0,0,0,0,0,100,0,0,1,0,0,0,0,0,0,100,0,0,1,0
1653021590919,0,0,0,0,0,100,0,0,3,0,0,0,0,0,0,100,0,0,0,0
1653021591420,0,0,1,0,0,100,0,0,0,0,0,0,0,0,0,100,0,0,0,0
1653021591921,0,1,0,0,0,100,0,0,0,0,0,0,0,0,0,100,0,1,0,0
1653021592422,0,0,0,0,0,100,0,0,0,0,0,0,0,0,0,100,0,0,0,0
1653021592922,0,0,0,0,0,100,0,0,0,0,0,0,3,0,0,100,0,0,0,0
1653021593423,0,0,0,0,0,100,0,0,1,0,0,0,1,0,0,100,0,0,0,0
1653021593924,0,0,0,0,0,100,0,0,0,0,0,0,0,0,0,100,0,0,0,0
1653021594425,0,0,0,0,0,100,0,0,0,0,0,0,2,0,0,100,0,0,0,0
1653021594926,0,2,0,0,0,100,0,0,0,0,0,0,0,0,0,98,0,0,0,0
1653021595426,0,0,0,0,0,100,0,0,0,0,0,0,0,0,0,100,0,0,0,0
1653021595926,0,0,0,0,0,100,0,0,0,0,0,0,0,0,0,100,0,0,0,0
1653021596426,0,0,0,0,0,100,0,0,1,0,0,0,0,0,0,100,0,0,0,0
1653021596926,0,0,0,0,0,100,1,0,0,0,0,0,0,0,0,100,0,0,0,0
1653021597425,0,0,0,0,0,100,0,0,0,0,0,0,0,0,0,100,0,0,0,0
1653021597925,0,1,0,0,0,100,0,0,0,0,0,0,0,0,0,100,0,0,0,0
1653021598426,0,0,0,0,0,100,0,0,0,0,0,0,0,0,0,100,0,0,0,0
1653021598925,0,0,0,0,0,100,0,0,0,0,0,0,0,0,0,100,0,0,0,0
1653021599425,0,0,0,0,0,100,0,0,0,0,0,0,0,0,0,100,0,0,0,0
1653021599925,0,0,0,0,0,100,0,0,2,0,0,0,0,0,0,100,0,0,0,0
1653021600425,0,0,0,0,0,100,0,0,0,0,0,0,0,0,0,100,0,0,0,0
1653021600926,0,1,0,0,0,100,0,0,0,0,0,0,0,0,0,100,1,0,1,0
1653021601427,0,0,0,0,0,100,0,0,1,0,0,0,0,0,0,100,0,0,0,0
1653021601928,0,0,0,0,0,100,0,0,3,0,0,0,0,0,0,100,0,0,0,0
1653021602429,0,0,0,0,0,100,0,0,0,0,0,0,0,0,0,100,0,0,0,0
1653021602930,0,0,0,0,0,100,0,0,0,0,0,0,0,0,0,100,0,0,0,0
1653021603431,0,0,0,0,0,100,0,0,0,0,0,0,1,0,0,100,0,0,0,0
1653021603932,0,0,0,0,0,100,0,0,0,0,0,0,3,0,0,100,0,0,0,0
1653021604433,0,0,0,0,0,100,0,0,0,0,0,0,0,0,0,100,0,0,0,0
1653021604934,0,0,0,0,0,100,0,0,0,0,0,0,0,0,0,100,0,1,0,0
1653021605435,0,0,0,0,0,100,0,0,0,0,0,0,0,0,0,100,0,0,0,0
1653021605936,0,0,0,0,0,100,0,0,0,0,0,0,0,0,0,100,0,0,0,0
1653021606437,0,0,0,0,0,100,0,0,0,0,0,0,0,0,0,100,0,0,0,0
1653021606938,0,0,0,0,0,100,0,0,0,0,0,0,0,0,0,100,0,2,0,0
1653021607439,0,0,0,0,0,100,0,0,1,0,0,0,0,0,0,100,0,0,1,0
1653021607940,0,0,0,0,0,100,0,0,0,0,0,0,0,0,0,100,0,0,0,0
1653021608441,0,0,0,0,0,100,0,0,0,1,0,0,0,0,0,100,0,0,0,0
1653021608942,0,0,0,0,0,100,0,0,0,0,0,0,2,0,0,100,0,0,0,0
1653021609443,0,0,0,0,0,100,0,0,0,0,0,0,0,0,0,100,0,1,0,0
1653021609944,0,0,0,0,0,100,0,0,0,0,0,0,0,1,0,100,0,0,0,0
1653021610445,0,0,0,0,0,100,0,0,0,0,0,0,0,0,0,100,0,1,1,0
1653021610946,0,0,0,0,0,100,0,0,0,0,0,0,0,0,0,100,0,0,0,0
1653021611447,0,1,0,0,0,100,0,1,0,0,1,0,0,0,0,100,0,0,0,0
1653021611948,0,0,0,0,0,100,0,0,0,0,1,0,0,0,0,100,0,0,0,0
1653021612449,0,0,0,0,0,100,0,0,0,0,1,0,2,0,0,100,0,1,0,0
1653021612950,0,0,0,0,0,100,0,0,0,0,0,0,0,0,0,100,0,0,0,0
1653021613451,0,0,0,0,0,100,0,0,0,0,0,0,0,0,0,100,0,0,0,0
1653021613952,0,0,0,0,0,100,0,0,0,0,0,0,1,0,0,100,0,0,0,0
1653021614452,0,1,0,0,0,100,0,0,0,0,0,0,1,0,0,100,0,0,0,0
1653021614953,0,0,0,0,0,100,0,0,0,0,2,0,0,0,0,100,0,0,0,0
1653021615454,0,0,0,0,0,100,0,0,0,0,0,0,2,0,0,100,0,0,0,0
1653021615955,0,0,0,0,0,100,0,0,0,0,0,0,0,0,0,100,0,0,0,0
1653021616456,0,0,0,0,0,100,0,0,0,0,0,0,0,0,0,100,0,0,0,0
1653021616957,0,0,0,0,0,100,0,0,0,0,0,0,0,0,0,100,0,0,0,0
1653021617458,0,1,0,0,0,100,1,0,0,0,0,0,0,0,0,100,0,0,0,0
1653021617959,0,0,0,0,0,100,0,0,0,0,1,0,0,0,0,100,0,0,0,0
1653021618460,0,0,0,0,0,100,1,0,0,0,1,0,0,0,0,100,1,0,0,0
1653021618960,0,0,0,0,0,100,0,0,0,0,0,0,0,0,0,100,0,0,0,0
1653021619461,0,0,0,0,0,100,1,0,0,0,0,0,1,0,0,100,0,0,0,0
1653021619960,0,0,0,0,0,100,0,0,1,0,0,0,0,0,0,100,0,0,0,0
1653021620460,0,0,1,0,0,100,1,0,0,0,0,0,1,0,0,100,0,0,0,0
1653021620960,0,0,0,0,0,100,0,1,0,0,0,0,0,0,0,100,0,0,0,0
1653021621460,0,0,0,0,0,100,1,0,0,0,0,0,1,0,0,100,0,0,0,0
1653021621960,0,0,0,0,0,100,0,0,0,0,0,0,0,0,0,100,0,0,0,0
1653021622460,0,0,0,0,0,100,1,0,0,0,0,0,1,0,0,100,0,0,0,0
1653021622960,0,0,0,0,0,100,0,0,0,0,0,0,0,0,0,100,0,0,0,0
1653021623460,0,0,0,0,0,100,0,0,1,0,0,0,0,0,0,100,0,0,0,0
1653021623960,0,0,0,0,0,100,0,0,3,0,1,0,2,0,0,100,0,0,0,0
1653021624460,0,0,0,0,0,100,0,0,1,0,0,0,0,0,0,100,0,0,0,0
1653021624960,0,0,0,0,0,100,0,0,0,0,0,0,0,0,0,100,0,0,0,0
1653021625461,0,0,0,0,0,100,0,0,0,0,0,0,0,0,0,100,0,0,0,0
1653021625962,0,0,0,0,0,100,0,0,1,0,1,0,0,0,0,100,0,0,0,0
1653021626463,0,0,0,0,0,100,1,1,0,0,0,0,0,0,0,100,0,0,0,0
1653021626964,0,0,0,0,0,100,1,0,0,0,0,0,0,0,0,100,0,0,0,0
1653021627465,0,0,0,0,0,100,0,0,0,0,0,0,0,0,0,100,0,0,0,0
1653021627966,0,1,0,0,0,100,0,0,0,0,0,0,0,0,0,100,0,0,0,0
1653021628467,0,0,0,0,0,100,0,0,0,0,1,0,1,0,0,100,0,0,0,0
1653021628968,0,0,0,0,0,100,0,0,0,0,0,0,0,0,0,100,0,0,0,0
1653021629468,0,1,0,0,0,100,0,0,0,0,0,0,1,0,0,100,0,0,0,0
1653021629968,1,0,0,0,0,100,0,0,0,0,0,0,1,0,0,100,0,0,0,0
1653021630469,0,0,0,0,0,100,0,0,0,0,0,0,1,0,0,100,0,0,0,0
1653021630970,0,1,0,0,0,100,0,0,0,0,0,0,0,0,0,100,0,0,0,0
1653021631471,0,0,0,0,0,100,0,0,0,0,0,0,0,0,0,100,0,0,0,0
1653021631972,0,0,0,0,0,100,0,0,0,0,1,0,0,0,0,100,0,0,0,0
1653021632473,0,0,0,0,0,100,0,1,0,0,4,0,0,0,0,100,1,0,0,0
1653021632975,0,0,0,0,0,100,0,0,0,0,0,0,0,0,0,100,0,0,0,0
1653021633474,0,0,0,0,0,100,2,0,0,0,0,0,0,0,0,100,0,0,0,0
1653021633974,0,2,0,0,0,100,0,0,0,0,0,0,0,0,0,100,0,0,0,0
1653021634474,0,0,0,0,0,100,0,0,0,0,0,0,0,0,0,100,0,0,0,0
1653021634975,0,0,0,0,0,100,0,0,0,0,0,0,0,0,0,100,0,0,0,0
1653021635476,0,0,0,0,0,100,0,0,0,0,1,0,0,0,0,100,0,0,0,0
1653021635976,0,0,0,0,0,100,0,0,0,0,0,0,0,0,0,100,0,0,0,0
1653021636476,0,0,0,0,0,100,0,0,0,0,0,0,0,0,0,100,0,0,0,0
1653021636976,0,0,0,0,0,100,0,0,0,0,0,0,0,0,0,100,0,0,1,0
1653021637476,0,0,0,0,0,100,0,0,0,0,2,0,0,0,0,100,0,0,0,0
1653021637976,0,0,0,0,0,100,0,1,0,0,0,0,0,0,0,100,1,0,2,0
1653021638476,0,0,0,0,0,100,0,0,0,0,0,0,0,0,0,100,0,0,0,0
1653021638977,0,0,0,0,0,100,0,0,0,0,0,0,0,0,0,100,0,0,0,0
1653021639478,0,0,0,0,0,100,0,0,0,0,0,0,0,0,0,100,0,0,0,0
1653021639978,2,0,2,0,0,100,0,0,0,0,0,0,0,0,0,100,0,0,0,0
1653021640478,1,0,0,0,0,100,0,0,0,0,0,0,3,0,0,100,0,0,0,0
1653021640979,0,0,0,0,0,100,0,0,0,0,0,0,2,0,0,100,0,0,3,0
1653021641479,0,0,0,0,0,100,0,0,0,0,0,0,1,0,0,100,0,0,1,0
1653021641979,0,0,0,0,0,100,0,0,1,0,0,0,0,0,0,100,0,0,1,0
1653021642479,0,0,0,0,0,100,0,0,0,0,0,0,1,0,0,100,0,0,1,0
1653021642978,0,0,0,0,0,100,0,0,0,0,0,0,0,0,0,100,0,0,1,0
1653021643478,0,0,0,0,0,100,0,0,0,0,0,0,1,0,0,100,0,0,0,0
1653021643978,0,0,0,0,0,100,0,0,0,0,0,0,0,0,0,100,0,0,1,0
1653021644479,0,1,0,0,0,100,0,0,0,0,0,0,0,0,0,100,0,0,3,0
1653021644978,0,0,0,0,0,100,0,0,0,0,0,0,2,0,0,100,0,0,3,0
1653021645478,0,0,0,0,0,100,0,0,0,0,0,0,0,0,0,100,0,0,0,0
1653021645978,0,0,0,0,0,100,0,0,0,0,0,0,0,0,0,100,0,0,1,0
1653021646478,0,0,0,0,0,100,0,0,0,0,0,0,0,0,0,100,0,0,1,0
1653021646979,0,0,0,0,0,100,0,0,0,0,0,0,0,0,0,100,0,0,3,0
1653021647478,0,1,0,0,0,100,0,0,0,0,0,0,0,0,0,100,0,0,0,0
1653021647978,0,0,0,0,0,100,0,0,0,0,0,0,0,0,0,100,0,0,1,0
1653021648478,0,0,1,0,0,100,0,0,0,0,0,0,0,0,0,100,0,0,1,0
1653021648978,0,0,0,0,0,100,0,0,0,0,0,0,0,0,0,100,0,0,2,0
1653021649478,0,0,0,0,0,100,0,0,0,0,1,0,1,0,0,100,0,0,1,0
1653021649978,0,0,0,0,0,100,0,0,0,0,0,0,0,0,0,100,0,0,1,0
1653021650479,0,1,0,0,0,100,0,0,0,0,0,0,0,0,0,100,0,0,0,0
1653021650980,0,0,0,0,0,100,0,0,1,0,0,0,0,0,0,100,0,0,0,0
1653021651480,0,0,0,0,0,100,0,0,0,0,2,0,0,0,0,100,0,0,0,0
1653021651980,0,0,0,0,0,100,0,0,2,0,1,0,0,0,0,100,0,0,0,0
1653021652481,0,0,0,0,0,100,0,0,0,0,0,0,0,0,0,100,0,0,0,0
1653021652982,0,0,0,0,0,100,0,0,0,0,0,0,0,0,0,100,0,0,0,0
1653021653483,0,0,0,0,0,100,0,0,0,0,1,0,0,0,0,100,0,0,0,0
1653021653984,0,0,0,0,0,100,0,0,1,0,0,0,1,0,0,100,0,0,0,0
1653021654485,0,0,0,0,0,100,0,0,0,0,0,0,0,0,0,100,0,1,0,0
1653021654986,0,0,0,0,0,100,0,0,0,0,0,0,0,0,0,100,0,0,0,0
1653021655487,0,0,0,0,0,100,0,0,0,0,0,0,0,0,0,100,0,0,0,0
1653021655988,0,0,0,0,0,100,0,0,0,0,0,0,0,0,0,100,0,0,0,0
1653021656489,0,0,0,0,0,100,0,0,0,0,0,0,1,0,0,100,0,0,0,0
1653021656990,0,0,0,0,0,100,0,0,0,0,1,0,0,0,0,100,0,0,0,0
1653021657491,0,0,0,0,0,100,0,0,0,0,0,0,0,0,0,100,0,0,0,0
1653021657991,0,1,0,0,0,100,0,0,0,0,1,0,0,0,0,100,0,0,0,0
1653021658491,0,0,0,0,0,100,0,0,0,0,1,0,0,0,0,100,0,0,0,0
1653021658991,0,0,0,0,0,100,0,0,0,0,0,0,0,0,0,100,0,0,0,0
1653021659491,0,0,0,0,0,100,0,0,0,0,1,0,0,0,0,100,0,0,0,0
1653021659991,0,0,0,0,0,100,0,0,0,0,0,0,0,0,0,100,0,0,0,0
1653021660491,0,0,0,0,0,100,1,0,0,0,0,0,0,0,0,100,0,0,0,0
1653021660991,0,1,0,0,0,100,0,0,0,0,0,0,0,0,0,100,0,0,0,0
1653021661491,0,0,0,0,0,100,2,0,1,0,0,0,0,0,0,100,0,0,0,0
1653021661992,0,0,0,0,0,100,0,0,0,0,1,0,0,0,0,100,0,0,0,0
1653021662492,0,0,0,0,0,100,0,0,0,0,1,0,0,0,0,100,0,0,0,0
1653021662991,0,0,0,0,0,100,0,0,0,0,0,0,0,0,0,100,1,0,0,0
1653021663491,0,0,0,0,0,100,0,0,0,0,0,0,0,0,0,100,0,0,0,0
1653021663991,0,2,0,0,0,100,0,0,0,0,1,0,0,0,0,100,0,0,1,0
1653021664491,0,0,0,0,0,100,0,0,0,0,0,0,0,0,0,100,0,0,0,0
1653021664991,0,0,0,0,0,100,0,1,0,0,0,0,0,0,0,100,0,0,0,0
1653021665491,0,0,0,0,0,100,0,0,0,0,0,0,0,0,0,100,0,0,0,0
1653021665991,0,0,1,0,0,100,0,0,0,0,0,0,0,0,0,100,0,0,0,0
1653021666491,0,0,0,0,0,100,0,0,0,0,0,0,0,0,0,100,0,0,0,0
1653021666991,0,1,0,0,0,100,0,0,0,0,0,0,0,0,0,100,0,0,1,0
1653021667492,0,0,0,0,0,100,0,0,0,0,0,3,0,0,0,100,0,0,0,0
1653021667993,0,0,0,0,0,100,0,0,0,0,0,1,1,0,0,100,0,0,0,0
1653021668494,0,0,0,0,0,100,0,0,0,0,0,0,0,0,0,100,0,0,0,0
1653021668995,0,0,0,0,0,100,0,0,0,0,0,0,0,0,0,100,0,0,0,0
1653021669496,0,0,0,0,0,100,0,0,0,0,0,0,0,0,0,100,0,0,0,0
1653021669997,0,0,0,0,0,100,0,0,0,0,1,0,0,0,0,100,0,0,0,0
1653021670498,0,0,0,0,0,100,0,0,0,0,0,0,0,0,0,100,0,0,0,0
1653021670999,2,0,0,0,0,100,0,0,0,0,0,0,0,0,0,100,0,0,3,0
1653021671500,0,0,0,0,0,100,0,1,0,0,0,0,0,0,0,100,0,0,0,0
1653021671999,0,0,0,0,0,100,0,0,0,0,0,0,0,0,0,100,0,0,0,0
1653021672500,0,0,0,0,0,100,0,0,0,0,0,0,1,0,0,100,0,0,0,0
1653021673000,0,0,0,0,98,2,0,0,0,0,0,0,0,0,0,100,0,0,0,0
1653021673499,0,0,0,0,100,0,0,0,0,0,0,0,0,0,0,100,0,0,0,0
1653021673999,0,0,0,0,100,0,0,0,0,0,0,0,1,0,0,100,0,0,1,0
1653021674500,1,0,0,0,100,0,0,0,0,0,0,0,1,0,0,100,0,0,0,0
1653021675001,0,0,0,0,100,0,0,0,1,0,0,0,0,0,0,100,0,0,0,0
1653021675502,0,0,0,0,98,0,0,0,0,0,0,0,0,0,0,100,0,0,0,0
1653021676003,0,0,0,0,100,0,0,0,1,0,0,0,0,0,0,100,0,0,0,0
1653021676504,0,0,0,0,100,0,0,0,0,0,0,1,2,0,0,100,0,0,0,0
1653021677005,0,0,0,0,100,0,0,0,0,0,0,0,0,0,0,100,0,0,0,0
1653021677506,0,1,0,0,100,0,0,0,0,0,0,0,0,0,0,100,0,0,0,0
1653021678007,0,0,0,0,100,0,0,0,0,0,0,0,0,0,0,100,0,0,1,0
1653021678508,0,0,0,0,100,0,0,1,0,0,0,0,1,0,0,100,0,0,0,0
1653021679008,0,0,0,0,100,0,0,0,0,0,0,0,1,0,0,100,0,0,1,0
1653021679508,0,0,0,0,100,0,0,0,0,0,0,0,0,0,0,100,0,0,1,0
1653021680008,1,0,0,0,100,0,0,0,0,0,0,0,1,0,0,100,0,0,0,0
1653021680509,1,1,0,0,100,0,2,0,0,0,0,0,1,0,0,100,0,0,0,0
1653021681010,0,0,0,0,100,0,0,0,1,0,0,0,0,0,0,100,0,0,1,0
1653021681511,0,0,0,0,100,0,0,0,0,0,0,0,0,0,0,100,0,0,0,0
1653021682012,1,0,0,0,100,0,0,0,0,0,0,1,0,0,0,100,0,0,0,0
1653021682513,0,0,0,0,100,0,0,0,1,0,0,1,0,0,0,100,1,0,0,0
1653021683014,0,0,0,0,100,0,0,0,0,0,0,0,0,0,0,100,0,0,0,0
1653021683515,0,1,0,0,100,0,0,0,0,0,0,0,0,0,0,100,0,0,0,0
1653021684016,0,0,0,0,100,0,0,0,0,0,0,0,0,0,0,100,1,0,0,0
1653021684517,0,0,0,0,100,0,0,0,0,0,0,1,0,0,0,100,0,0,0,0
1653021685017,0,0,0,0,100,0,0,0,0,0,0,0,0,0,0,100,0,0,0,0
1653021685517,0,0,0,0,100,0,0,0,0,0,0,0,0,0,0,100,0,0,0,0
1653021686017,0,0,0,0,100,0,0,0,0,0,0,0,0,0,0,100,0,0,0,0
1653021686517,0,0,0,0,100,0,0,0,0,0,0,0,0,0,0,100,0,0,0,0
1653021687017,0,0,0,0,100,0,0,0,0,0,0,0,0,0,0,100,0,0,0,0
1653021687518,0,0,0,0,100,0,0,0,0,0,0,0,0,0,0,100,0,0,0,0
1653021688018,0,0,0,0,100,0,0,0,0,0,0,0,1,0,0,100,0,0,1,0
1653021688519,0,0,0,0,100,0,0,0,0,0,0,0,3,0,0,100,0,0,0,0
1653021689020,0,0,0,0,100,0,0,0,0,0,0,0,0,0,0,100,0,0,0,0
1653021689521,0,0,0,0,100,0,0,1,0,0,0,0,0,0,0,100,0,0,0,0
1653021690022,1,0,0,0,100,0,0,0,0,0,0,0,0,0,0,100,1,0,1,0
1653021690523,0,0,0,0,100,0,0,0,0,0,0,0,0,0,0,100,0,0,0,0
1653021691024,0,0,0,0,100,0,0,0,0,0,0,0,0,0,0,100,0,0,0,0
1653021691525,0,0,0,0,100,0,0,0,0,0,0,0,0,0,0,100,0,0,0,0
1653021692026,0,0,0,0,100,0,0,0,0,0,0,0,0,0,0,100,0,0,0,0
1653021692527,0,0,0,0,100,0,0,1,0,0,0,0,0,0,0,100,1,0,0,0
1653021693028,0,0,0,0,100,0,0,0,0,0,0,0,0,0,0,100,0,0,3,0
1653021693529,0,0,0,0,100,0,0,0,0,0,0,0,1,1,0,100,1,0,0,0
1653021694030,1,0,0,0,100,0,0,0,0,0,0,0,0,0,0,100,0,0,3,0
1653021694531,0,0,0,0,96,4,0,0,0,0,0,1,0,0,0,100,0,0,0,0
1653021695032,0,0,0,0,0,100,0,0,0,0,0,0,0,0,0,100,0,0,2,0
1653021695531,0,0,0,0,0,100,2,0,0,0,0,0,0,0,0,100,0,0,1,0
1653021696031,0,0,0,0,0,100,0,0,0,0,0,1,0,0,0,100,0,0,2,0
1653021696531,0,0,0,0,4,94,0,0,0,0,0,0,0,0,0,100,0,0,0,0
1653021697032,0,0,0,0,100,0,0,0,0,0,1,0,0,0,0,100,0,0,0,0
1653021697533,0,0,0,0,100,0,0,0,0,0,0,0,0,0,0,100,0,0,1,0
1653021698034,0,0,1,0,100,0,0,0,0,0,0,1,0,0,0,100,0,0,2,0
1653021698535,0,0,0,0,96,4,0,0,0,0,0,0,0,0,0,100,0,0,0,0
1653021699036,0,0,0,0,0,100,0,0,0,0,0,0,0,0,0,100,0,0,0,0
1653021699537,0,0,0,0,0,100,0,0,1,0,0,1,0,0,0,100,0,0,0,0
1653021700038,0,1,0,0,0,100,0,0,0,0,0,0,0,0,0,100,0,0,1,0
1653021700539,0,0,0,0,0,100,0,0,0,0,0,0,0,0,0,100,0,0,1,0
1653021701039,0,1,0,0,0,100,0,0,0,0,0,0,0,0,0,100,0,0,0,0
1653021701540,0,0,0,0,0,100,0,0,1,0,0,0,3,0,0,100,0,0,0,0
1653021702041,0,0,0,0,0,100,0,0,0,0,0,0,0,0,0,100,0,0,0,0
1653021702542,0,0,0,0,0,100,0,0,0,0,0,0,0,0,0,100,0,0,0,0
1653021703043,0,1,0,0,0,100,0,0,0,0,0,0,0,0,0,100,0,0,0,0
1653021703544,0,0,0,0,0,100,0,0,0,0,0,0,0,0,0,100,0,0,0,0
1653021704045,0,0,0,0,0,100,0,0,0,0,0,1,0,0,0,100,0,0,0,0
1653021704546,0,0,0,0,6,92,0,0,0,0,0,0,0,0,0,100,0,0,0,0
1653021705047,0,0,0,0,100,0,0,0,0,0,0,0,0,0,0,100,0,0,0,0
1653021705546,0,0,0,0,100,0,0,0,0,0,0,0,0,0,0,100,0,0,0,0
1653021706046,0,1,0,0,100,0,0,0,0,0,0,0,0,0,0,100,1,0,0,0
1653021706546,0,0,0,0,100,0,0,0,0,0,0,0,0,0,0,100,0,0,0,0
1653021707046,0,0,0,0,100,0,0,0,0,0,0,1,0,0,0,100,0,0,0,0
1653021707547,0,0,0,0,100,0,0,0,0,0,0,0,0,0,0,100,0,0,0,0
1653021708048,0,0,0,0,100,0,1,0,0,0,0,1,0,0,0,100,0,0,0,0
1653021708549,1,0,0,0,100,0,0,0,1,0,0,0,0,0,0,100,0,0,0,0
1653021709050,0,1,0,0,100,0,0,0,0,0,0,0,0,0,0,100,0,0,0,0
1653021709551,0,0,0,0,100,0,0,0,0,0,0,0,3,0,0,100,0,0,0,0
1653021710052,0,0,0,0,100,0,0,0,0,0,0,0,0,0,0,100,0,0,0,0
1653021710553,1,0,0,0,100,0,0,0,0,0,0,1,2,0,0,100,0,0,0,0
1653021711054,0,0,0,0,100,0,0,0,0,0,0,0,0,0,0,100,0,0,0,0
1653021711555,0,0,0,0,100,0,0,0,0,0,0,0,0,0,0,100,0,0,0,0
1653021712056,0,0,0,0,100,0,0,0,0,0,0,0,0,0,0,100,0,0,0,0
1653021712556,0,0,0,0,100,0,0,0,0,0,0,0,0,0,0,100,0,0,0,0
1653021713057,0,0,0,0,100,0,0,0,0,0,0,0,0,0,0,100,0,0,0,0
1653021713558,1,0,0,0,100,0,0,0,0,0,0,0,0,0,0,100,0,0,0,0
1653021714059,0,0,0,0,100,0,0,0,0,0,0,0,0,0,0,100,0,0,1,0
1653021714558,4,0,2,0,100,0,1,0,0,0,0,0,3,1,0,100,3,0,1,0
1653021715058,0,0,0,0,100,0,0,0,0,0,0,0,0,0,0,100,0,0,3,0
1653021715558,0,0,0,0,100,0,0,0,0,0,0,0,1,0,0,100,0,0,1,0
1653021716058,0,0,0,0,100,0,0,0,0,0,0,0,0,0,0,100,3,0,1,0
1653021716558,1,0,1,0,100,0,3,0,0,0,0,0,0,0,0,100,0,0,0,0
1653021717059,0,0,0,0,100,0,1,0,0,0,0,0,0,0,0,100,0,0,0,0
1653021717560,0,0,0,0,100,0,1,0,0,0,0,0,1,0,0,100,0,0,0,0
1653021718060,0,0,0,0,100,0,0,0,0,0,1,0,2,0,0,100,0,0,0,0
1653021718561,0,0,0,0,100,0,0,0,0,0,0,0,0,0,0,100,0,0,0,0
1653021719062,0,0,0,0,100,0,0,1,0,1,0,0,1,0,0,100,0,0,0,0
1653021719563,0,1,0,0,100,0,1,0,0,0,0,0,1,0,0,100,0,0,0,0
1653021720064,1,0,1,0,100,0,0,0,0,0,0,0,2,0,0,100,0,0,0,0
1653021720565,0,0,1,0,100,0,1,0,0,0,0,0,0,0,0,100,0,0,0,0
1653021721066,0,0,0,0,100,0,0,0,0,0,1,0,0,0,0,100,0,0,0,0
1653021721567,0,0,0,0,100,0,0,0,0,0,0,0,1,0,0,100,0,0,0,0
1653021722068,0,0,0,0,100,0,0,0,0,0,0,0,0,0,0,100,0,1,0,0
1653021722569,0,1,0,0,100,0,0,0,0,0,1,0,0,0,0,100,0,0,0,0
1653021723070,0,0,0,0,100,0,0,0,0,0,0,0,0,0,0,100,0,0,0,0
1653021723571,1,0,0,0,100,0,0,0,0,0,0,0,3,0,0,100,0,0,0,0
1653021724071,0,0,0,0,98,0,0,0,0,0,0,0,1,0,0,100,0,1,1,0
1653021724572,0,0,0,0,100,0,0,0,0,0,0,0,0,0,0,100,0,0,0,0
1653021725072,0,0,0,0,100,0,0,0,0,0,0,0,0,0,0,100,0,0,0,0
1653021725573,0,2,1,0,100,0,0,0,0,0,0,0,0,0,0,100,0,0,0,0
1653021726073,0,0,1,0,100,0,0,0,0,0,0,0,1,0,0,100,0,0,0,0
1653021726573,0,0,1,0,100,0,2,0,2,1,2,4,8,0,0,100,2,0,1,2
1653021727073,0,0,0,0,100,0,4,1,0,0,0,26,10,0,0,100,1,0,4,2
1653021727573,2,0,0,0,100,0,0,0,0,0,0,0,0,0,0,100,0,0,0,0
1653021728073,2,0,0,0,100,0,0,0,0,0,0,0,0,0,0,100,0,0,0,0
1653021728573,0,1,0,0,100,0,0,0,0,0,0,0,0,0,0,100,0,0,0,0
1653021729073,0,0,0,0,100,0,0,0,0,0,0,0,0,0,0,100,1,0,0,0
1653021729573,1,0,0,0,100,0,0,0,1,0,0,0,0,0,0,100,1,0,1,0
1653021730074,0,0,0,0,100,0,0,0,0,0,1,0,0,0,0,100,0,0,0,0
